@startuml
title SH40 - Modèle conceptuel de données : "Gestion des risques"
skinparam monochrome true
package Gestion{
    package "PGRI - Plan de Gestion des risques d'innondations" as PGRI{
        note left of PGRI
            Fixe les grands objectifs en matière de gestion des risques d'inondation
            et les objectifs propres à certains territoires à risque d'inondation important (TRI)
        end note
    }
    package "GEMAPI" as Gemapi{
        package "Gestion des milieux aquatiques" as GestionMilieuAquatique
        package "identifier les acteurs" as IdentificationActeurs
    }
    GestionMilieuAquatique --> IdentificationActeurs
    package "PAPI - Programme d'action en prévision d'innondation" as PAPI{
        package Prevision{
            entity "Alerte et gestion de crise" as AlerteGestionCrise
            package "Prise en compte du risque dans l'urbanisme" as PriseEnCompte
        }
        package Prevention{
            package "Surveillance, prévision des crues" as SurveillancePrévision
            package "Amélioration des connaissances" as AmeliorationConnaissances
        }
        package Protection{
            package "Etudes, actions de réduction" as ActionDeProtection
            package "Ralentissements des écoulements" as RalentissementEcoulement
            package "Ouvrages de protection" as OuvragesProtection
        }
    }
    PAPI --> Prevision
    Prevision --> Prevention
    Prevention --> Protection
    package ICPE{
            entity "-D : installations les moins polluantes et ou dangereuses"
            entity "-E : demande d'autorisation simplifiée avant toute mise en service"
            entity "-A : installation dangereuses, études d'impact et dangers"
            entity "-S : institutions de servitudes d'utilité publique car dangereuses par les effets d'incendies, d'explosions..."
    }
    package SEVESO{
        note left of SEVESO #yellow
            impose une étude de danger, un plan d'opération interne, un plan particulier d'intervention, un 'droit de savoir' sur la population
        end note
        entity "1. recensement des sites industriels dangereux, système national d'inspection, obligation d'établissement de politique de prévention des accidents majeurs"
        entity "2. Ajout de nouvelles directives"
        entity "3. Normes plus strictes, plus d'inspections et plus d'informations au public avec un seuil haut et un seuil bas en fonction de l'établissement."
    }
}
package Risque {
    package Vulnérabilités{
        package Enjeux {
            entity "Infrastructures" as Infra
            entity "Industries" as Indus
            entity "Environnement" as Env
            entity "Agroalimentaire" as Agro
            package "Populations"{
                entity "Connaissance/Information" as ConInf
                entity "Age" as Age
                entity "Santé" as Sante
                entity "Aménités" as Aménités
                entity "Population jeune" as PopJeune
                entity "Population âgée" as PopAgée
                entity "Population invalide" as Invalidité
            }
        }
        Populations <-- Aménités
        Populations <-- PopJeune
        Populations <-- PopAgée
        Populations <-- Invalidité
    }
}
package Aléas{
    package Hydro-Climatiques{
        Crues <-- Météo
        Sécheresses <-- Météo
        "Feu de Forêt" <-- Sécheresses
        Tempêtes <-- Météo
    }
    
    package Geomorphologiques-Gravitaires{
        entity "Mouvement de terrain" as MouvementTerrain
        entity "Séismes" as Seismes
    }
    package Technologiques{
        entity "Incendies" as Incendies
        entity "Explosions" as Explosions
        entity "Pollutions" as Pollutions
        
    }
}
